<svg id="_24px_23_" data-name="24px (23)" xmlns="http://www.w3.org/2000/svg" width="21.01" height="21.01" viewBox="0 0 21.01 21.01">
  <path id="Path_2126" data-name="Path 2126" d="M0,0H21.01V21.01H0Z" fill="none"/>
  <path id="Path_2127" data-name="Path 2127" d="M10.754,5.355l4.377,3.939v6.837H13.38V10.879H8.128v5.253H6.377V9.294l4.377-3.939m0-2.355L2,10.879H4.626v7H9.879V12.63H11.63v5.253h5.253v-7h2.626Z" transform="translate(-0.249 -0.374)" fill="#fdb413"/>
</svg>
