<svg xmlns="http://www.w3.org/2000/svg" width="36.5" height="36.5" viewBox="0 0 36.5 36.5">
  <g id="plus-compose" transform="translate(13 3)">
    <g id="Group-2" transform="translate(-10 0)">
      <path id="Rectangle-Copy-3" d="M0,3.507,3.507,0,7.015,3.507V18.25H0Z" transform="translate(15.25 11.743) rotate(90)" fill="#53cdde" fill-rule="evenodd"/>
      <path id="Rectangle-Copy-4" d="M0,11.743,3.507,15.25l3.507-3.508V-3H0Z" transform="translate(30.5 11.743) rotate(90)" fill="#00bd8f" fill-rule="evenodd"/>
      <path id="Rectangle-Copy-6" d="M0,3.508,3.507,0,7.015,3.507V18.25H0Z" transform="translate(18.757 15.25) rotate(-180)" fill="#db0000" fill-rule="evenodd"/>
      <path id="Rectangle-Copy-5" d="M0,11.742,3.507,15.25l3.508-3.508V-3H0Z" transform="translate(18.757 30.5) rotate(180)" fill="#f2a500" fill-rule="evenodd"/>
    </g>
  </g>
</svg>
