<?xml version="1.0" encoding="utf-8"?>
<!-- Generator: Adobe Illustrator 21.1.0, SVG Export Plug-In . SVG Version: 6.00 Build 0)  -->
<svg version="1.1" id="Layer_1" xmlns="http://www.w3.org/2000/svg" xmlns:xlink="http://www.w3.org/1999/xlink" x="0px" y="0px"
	 viewBox="0 0 512 512" style="enable-background:new 0 0 512 512;" xml:space="preserve">
<style type="text/css">
	.st0{fill:#04AA20;}
</style>
<path class="st0" d="M256,512C114.6,512,0,397.4,0,256S114.6,0,256,0s256,114.6,256,256S397.4,512,256,512z M137.2,264.8l73.3,74.9
	c1.6,1.6,4.3,1.7,5.9,0.1l160.2-155.8c0.8-0.8,0.9-2.1,0-3l-10.1-9.9c-0.9-0.8-2.3-0.8-3.2-0.1L216.8,291.9c-2,1.5-4.7,1.6-6.7,0.2
	L150.6,247c-0.9-0.7-2.2-0.6-3,0.4c0,0,0,0.1-0.1,0.1L137,261.5C136.3,262.5,136.4,263.9,137.2,264.8z"/>
</svg>
